{
  "files": {
    "main.css": "/static/css/main.be821e93.chunk.css",
    "main.js": "/static/js/main.dfddade5.chunk.js",
    "main.js.map": "/static/js/main.dfddade5.chunk.js.map",
    "runtime-main.js": "/static/js/runtime-main.b96ce03a.js",
    "runtime-main.js.map": "/static/js/runtime-main.b96ce03a.js.map",
    "static/js/2.1a79c6db.chunk.js": "/static/js/2.1a79c6db.chunk.js",
    "static/js/2.1a79c6db.chunk.js.map": "/static/js/2.1a79c6db.chunk.js.map",
    "index.html": "/index.html",
    "static/css/main.be821e93.chunk.css.map": "/static/css/main.be821e93.chunk.css.map",
    "static/js/2.1a79c6db.chunk.js.LICENSE.txt": "/static/js/2.1a79c6db.chunk.js.LICENSE.txt"
  },
  "entrypoints": [
    "static/js/runtime-main.b96ce03a.js",
    "static/js/2.1a79c6db.chunk.js",
    "static/css/main.be821e93.chunk.css",
    "static/js/main.dfddade5.chunk.js"
  ]
}